^C:\USERS\VAIB\DOCUMENTS\VISUAL STUDIO 2013\PROJECTS\PYLON\PYLON\STDAFX.CPP
/c /I"C:\Program Files (x86)\Windows Kits\10\Include\10.0.17134.0\shared" /I"C:\Program Files (x86)\Windows Kits\10\Include\10.0.17134.0\um" /ZI /nologo /W3 /WX- /sdl /Od /Oy- /D WIN32 /D _DEBUG /D _CONSOLE /D _LIB /D _UNICODE /D UNICODE /Gm /EHsc /RTC1 /MDd /GS /fp:precise /Zc:wchar_t /Zc:forScope /Yc"stdafx.h" /Fp"DEBUG\PYLON.PCH" /Fo"DEBUG\\" /Fd"DEBUG\VC120.PDB" /Gd /TP /analyze- C:\USERS\VAIB\DOCUMENTS\VISUAL STUDIO 2013\PROJECTS\PYLON\PYLON\STDAFX.CPP
^C:\USERS\VAIB\DOCUMENTS\VISUAL STUDIO 2013\PROJECTS\PYLON\PYLON\PYLON.CPP
/c /I"C:\Program Files (x86)\Windows Kits\10\Include\10.0.17134.0\shared" /I"C:\Program Files (x86)\Windows Kits\10\Include\10.0.17134.0\um" /ZI /nologo /W3 /WX- /sdl /Od /Oy- /D WIN32 /D _DEBUG /D _CONSOLE /D _LIB /D _UNICODE /D UNICODE /Gm /EHsc /RTC1 /MDd /GS /fp:precise /Zc:wchar_t /Zc:forScope /Fo"DEBUG\\" /Fd"DEBUG\VC120.PDB" /Gd /TP /analyze- C:\USERS\VAIB\DOCUMENTS\VISUAL STUDIO 2013\PROJECTS\PYLON\PYLON\PYLON.CPP
